{"logLevel":"debug","message":"multithreading is set to false"}
{"logLevel":"debug","message":"Using reflection to scan dependencies for gauge implementations..."}
log4j:WARN No appenders could be found for logger (io.grpc.netty.shaded.io.netty.util.internal.logging.InternalLoggerFactory).
log4j:WARN Please initialize the log4j system properly.
log4j:WARN See http://logging.apache.org/log4j/1.2/faq.html#noconfig for more info.
{"logLevel":"debug","message":"gauge-java took 919milliseconds to load and scan. This should be less than 'runner_connection_timeout' config value."}
{"logLevel":"debug","message":"run 'gauge config runner_connection_timeout' and verify that it is < 919"}
{"logLevel":"debug","message":"starting gRPC server..."}
{"logLevel":"debug","message":"started gRPC server on port 51557"}
{"logLevel":"info","message":"Listening on port:51557"}
{"logLevel":"debug","message":"Scanning packages for steps"}
{"logLevel":"debug","message":"Comparing 'StepImplementations.checkStep' and 'StepImplementations.checkStep'"}
{"logLevel":"debug","message":"Found {} kontrol et in current project scope."}
{"logLevel":"debug","message":"Comparing 'StepImplementations.anaSayfa' and 'StepImplementations.anaSayfa'"}
{"logLevel":"debug","message":"Found Ana sayfaya git in current project scope."}
{"logLevel":"debug","message":"Comparing 'StepImplementations.waitElement' and 'StepImplementations.waitElement'"}
{"logLevel":"debug","message":"Found {} saniye bekle in current project scope."}
{"logLevel":"debug","message":"Comparing 'StepImplementations.newTab' and 'StepImplementations.newTab'"}
{"logLevel":"debug","message":"Found yeni pencereye git in current project scope."}
{"logLevel":"debug","message":"Comparing 'StepImplementations.clickStep' and 'StepImplementations.clickStep'"}
{"logLevel":"debug","message":"Found {} tikla in current project scope."}
{"logLevel":"debug","message":"Scanning packages for hooks"}
{"logLevel":"debug","message":"Scanned steps (using static parsing + reflections): "}
{"logLevel":"debug","message":"\t{} saniye bekle : public void waitElement(ınt key) throws InterruptedException"}
{"logLevel":"debug","message":"\tyeni pencereye git : public void newTab()"}
{"logLevel":"debug","message":"\t{} tikla : public void clickStep(String element)"}
{"logLevel":"debug","message":"\t{} kontrol et : public void checkStep(String element)"}
{"logLevel":"debug","message":"\tAna sayfaya git : public void anaSayfa()"}
Senaryo basliyor
Starting ChromeDriver 87.0.4280.88 (89e2380a3e36c3464b5dd1302349b1382549290d-refs/branch-heads/4280@{#1761}) on port 38783
Only local connections are allowed.
Please see https://chromedriver.chromium.org/security-considerations for suggestions on keeping ChromeDriver safe.
ChromeDriver was started successfully.
Oca 27, 2021 1:26:10 PM org.openqa.selenium.remote.ProtocolHandshake createSession
INFO: Detected dialect: W3C
{"logLevel":"debug","message":"Executing 'Ana sayfaya git' using 'class StepImplementations.anaSayfa"}
{"logLevel":"debug","message":"Executing '{} saniye bekle' using 'class StepImplementations.waitElement"}
1 saniye beklendi.
{"logLevel":"debug","message":"Executing '{} kontrol et' using 'class StepImplementations.checkStep"}
logo kontrol edildi.
{"logLevel":"debug","message":"Executing '{} tikla' using 'class StepImplementations.clickStep"}
krediler tiklandi.
{"logLevel":"debug","message":"Executing '{} saniye bekle' using 'class StepImplementations.waitElement"}
1 saniye beklendi.
{"logLevel":"debug","message":"Executing '{} tikla' using 'class StepImplementations.clickStep"}
ihtiyacKredileri tiklandi.
{"logLevel":"debug","message":"Executing '{} saniye bekle' using 'class StepImplementations.waitElement"}
1 saniye beklendi.
{"logLevel":"debug","message":"Executing '{} tikla' using 'class StepImplementations.clickStep"}
ihtiyacKredisi tiklandi.
{"logLevel":"debug","message":"Executing '{} saniye bekle' using 'class StepImplementations.waitElement"}
1 saniye beklendi.
{"logLevel":"debug","message":"Executing '{} kontrol et' using 'class StepImplementations.checkStep"}
tablo kontrol edildi.
{"logLevel":"debug","message":"Executing '{} saniye bekle' using 'class StepImplementations.waitElement"}
1 saniye beklendi.
{"logLevel":"debug","message":"Executing '{} tikla' using 'class StepImplementations.clickStep"}
findeksRiskNedir tiklandi.
{"logLevel":"debug","message":"Executing '{} saniye bekle' using 'class StepImplementations.waitElement"}
1 saniye beklendi.
{"logLevel":"debug","message":"Executing '{} tikla' using 'class StepImplementations.clickStep"}
findeksNot tiklandi.
{"logLevel":"debug","message":"Executing '{} saniye bekle' using 'class StepImplementations.waitElement"}
1 saniye beklendi.
{"logLevel":"debug","message":"Executing 'yeni pencereye git' using 'class StepImplementations.newTab"}
{"logLevel":"debug","message":"Executing '{} kontrol et' using 'class StepImplementations.checkStep"}
bireysel kontrol edildi.
{"logLevel":"debug","message":"Executing '{} tikla' using 'class StepImplementations.clickStep"}
bireysel tiklandi.
{"logLevel":"debug","message":"Executing '{} saniye bekle' using 'class StepImplementations.waitElement"}
1 saniye beklendi.
{"logLevel":"debug","message":"Executing '{} kontrol et' using 'class StepImplementations.checkStep"}
klasik satin al kontrol edildi.
{"logLevel":"debug","message":"Executing '{} saniye bekle' using 'class StepImplementations.waitElement"}
1 saniye beklendi.
{"logLevel":"debug","message":"Executing '{} tikla' using 'class StepImplementations.clickStep"}
klasik satin al tiklandi.
{"logLevel":"debug","message":"Executing '{} saniye bekle' using 'class StepImplementations.waitElement"}
1 saniye beklendi.
{"logLevel":"debug","message":"Executing '{} kontrol et' using 'class StepImplementations.checkStep"}
acilanSekme kontrol edildi.
{"logLevel":"debug","message":"Executing '{} saniye bekle' using 'class StepImplementations.waitElement"}
1 saniye beklendi.
Senaryo bitti.
